[
    {
        "name": "Green salad with tomatoe",
        "prize": "4$",
        "id": 1,
        "ingredients": [
            "Iceberg lettuce",
            "Tomatoes"
        ],
        "dressings": [
            "Italian dressing",
            "French dressing",
            "No dressing"
        ],
        "imageUrl": "https://farm6.staticflickr.com/5087/5358599242_7251dc7de4.jpg"
    },
    {
        "name": "Tomato salad with mozzarella",
        "prize": "5$",
        "id": 2,
        "ingredients": [
            "Tomato",
            "Mozzarella"
        ],
        "dressings": [
            "Italian dressing",
            "French dressing",
            "No dressing"
        ],
        "imageUrl": "https://farm4.staticflickr.com/3130/5862973974_c107ed81ea.jpg"
    },
    {
        "name": "Field salad with egg",
        "prize": "4$",
        "id": 3,
        "ingredients": [
            "Field salad",
            "Egg"
        ],
        "dressings": [
            "Italian dressing",
            "French dressing",
            "No dressing"
        ],
        "imageUrl": "https://farm9.staticflickr.com/8223/8372222471_662acd24f6.jpg"
    },
    {
        "name": "Rocket with parmesan",
        "prize": "5$",
        "id": 4,
        "ingredients": [
            "Rocket",
            "Parmesan"
        ],
        "dressings": [
            "Italian dressing",
            "French dressing",
            "No dressing"
        ],
        "imageUrl": "https://farm8.staticflickr.com/7017/6818343859_bb69394ff2.jpg"
    }
]